%YAML 1.1
%TAG !u! tag:unity3d.com,2011:
--- !u!1045 &1
EditorBuildSettings:
  m_ObjectHideFlags: 0
  serializedVersion: 2
  m_Scenes:
  - enabled: 1
    path: Assets/MainMenu.unity
    guid: 2e44a24f0f4af444cb14ab869166af0a
  - enabled: 1
    path: Assets/MainLevel.unity
    guid: f60b5329bd80dba46b03815bd470cf00
  - enabled: 1
    path: Assets/GameOver.unity
    guid: d315974b43b026e43b659fea6df16d6b
